…
```
## Joining, by = c("word", "sentiment")
```

```r
bing_word_counts
```

```
## # A tibble: 1,838 x 3
##    word       sentiment     n
##    <chr>      <chr>     <int>
##  1 trust      positive    619
##  2 rejects    negative    549
##  3 concerns   negative    425
##  4 safe       positive    405
##  5 support    positive    256
##  6 protect    positive    250
##  7 issues     negative    235
##  8 capability positive    225
##  9 top        positive    191
## 10 positive   positive    154
## # ... with 1,828 more rows
```
…
